Shared Tools for Tracking Data • traipse
…
# install.packages("devtools")
devtools::install_github("Trackage/traipse")

Example

This is a basic example which shows you how to calculate ellipsoidal distance and turning angle for a data set of tracks.

First, calculate without any groupings - we definitely don’t want this for real work as there are three separate tracks within our data set identified by id. (No ordering is applied other than the order the rows occur).

library(traipse)

library(dplyr)
## there's no grouping here - we haven't gotten our data organized yet
trips0 %>% mutate(distance = track_distance(x, y), angle = track_angle(x, y))
#> # A tibble: 1,500 × 6
#>        x     y date                id    distance  angle
#>    <dbl> <dbl> <dttm>              <chr>    <dbl>  <dbl>
#>  1  115. -42.4 2001-01-01 15:39:50 1          NA   NA   
#>  2  116. -41.4 2001-01-01 18:16:52 1      129435. 120.  
#>  3  116. -41.1 2001-01-01 21:03:38 1       34632.   4.43
#>  4  117. -42.1 2001-01-01 22:09:41 1      120575.  13.1 
#>  5  116. -41.9 2001-01-01 23:33:54 1       30560.  72.4 
#>  6  118. -42.0 2001-01-02 01:25:12 1       97593.  25.6 
#>  7  117. -41.7 2001-01-02 06:45:40 1       57005.  89.5 
#>  8  118. -40.9 2001-01-02 10:01:26 1      108811. 159.  
#>  9  118. -39.7 2001-01-02 13:49:59 1      130588.  23.8 
#> 10  118. -40.5 2001-01-02 16:24:46 1       86066.  64.3 
#> # … with 1,490 more rows

Now run a set of available metrics, but do it with respect to the grouping variable id.

metric <- trips0 %>% group_by(id) %>% mutate(distance = track_distance(x, y), 
                                             angle = track_angle(x, y),
                                             turn = track_turn(x, y), 
                                             bearing = track_bearing(x, y), 
                                             duration = track_time(date),
                                             speed = track_speed(x, y, date), 
                                             distance_to = track_distance_to(x, y, 147, -42), 
                                             bearing_to = track_bearing_to(x, y, 100, -42)) 
metric 
#> # A tibble: 1,500 × 12
#> # Groups:   id [3]
#>        x     y date                id    distance  angle   turn bearing duration
#>    <dbl> <dbl> <dttm>              <chr>    <dbl>  <dbl>  <dbl>   <dbl>    <dbl>
#>  1  115. -42.4 2001-01-01 15:39:50 1          NA   NA      NA     34.5        NA
#>  2  116. -41.4 2001-01-01 18:16:52 1      129435. 120.    -61.0  -26.5      9422
#>  3  116. -41.1 2001-01-01 21:03:38 1       34632.   4.43 -175.   158.      10006
#>  4  117. -42.1 2001-01-01 22:09:41 1      120575.  13.1  -167.    -9.20     3963
#>  5  116. -41.9 2001-01-01 23:33:54 1       30560.  72.4   108.    98.5      5053
#>  6  118. -42.0 2001-01-02 01:25:12 1       97593.  25.6  -155.   -56.7      6678
#>  7  117. -41.7 2001-01-02 06:45:40 1       57005.  89.5    90.9   34.1     19228
#>  8  118. -40.9 2001-01-02 10:01:26 1      108811. 159.    -21.2   12.9     11746
#>  9  118. -39.7 2001-01-02 13:49:59 1      130588.  23.8   156.   169.      13713
#> 10  118. -40.5 2001-01-02 16:24:46 1       86066.  64.3  -116.    53.1      9287
#> # … with 1,490 more rows, and 3 more variables: speed <dbl>, distance_to <dbl>,
#> #   bearing_to <dbl>
…
#>        x     y date               
#>    <dbl> <dbl> <dttm>             
#>  1  115. -42.4 2001-01-01 15:40:00
#>  2  116. -41.4 2001-01-01 18:17:02
#>  3  116. -41.1 2001-01-01 21:03:48
#>  4  117. -42.1 2001-01-01 22:09:51
#>  5  116. -41.9 2001-01-01 23:34:04
#>  6  118. -42.0 2001-01-02 01:25:22
#>  7  117. -41.7 2001-01-02 06:45:50
#>  8  118. -40.9 2001-01-02 10:01:36
#>  9  118. -39.7 2001-01-02 13:50:09
#> 10   NA   NA   2001-01-02 16:24:56
s <- seq(min(trips0$date), max(trips0$date), by = "1 hour")
trips0 %>% group_by(id) %>% group_modify(~track_query(.x$x, .x$y, .x$date, query = s))
#> # A tibble: 5,751 × 4
#> # Groups:   id [3]
#>    id        x     y date               
#>    <chr> <dbl> <dbl> <dttm>             
#>  1 1       NA   NA   2001-01-01 15:24:58
#>  2 1      116. -42.1 2001-01-01 16:24:58
#>  3 1      116. -41.7 2001-01-01 17:24:58
#>  4 1      116. -41.4 2001-01-01 18:24:58
#>  5 1      116. -41.3 2001-01-01 19:24:58
#>  6 1      116. -41.2 2001-01-01 20:24:58
#>  7 1      116. -41.5 2001-01-01 21:24:58
#>  8 1      117. -42.1 2001-01-01 22:24:58
#>  9 1      116. -41.9 2001-01-01 23:24:58
#> 10 1      117. -41.9 2001-01-02 00:24:58
#> # … with 5,741 more rows
…
